{
  "Taleem": "خواندن",
  "Tajweed": "تجوید",
  "Quiz": "امتحان",
  "Memorize": "حفظ",
  "Tajweed and Its Significance": "تجوید و ارزش آن",
  "click_examples_below": "دکمه مثال را کلیک نمایید.",
  "Memorize Passages": "متن های حفظی ",
  "Quiz Topics": "مووضوعات امتحان",
  "Tajweed Lessons": "درس های تجوید",
  "Taleem Lessons": "متنها",
  "Quick Settings & Info": " تنظیمات و اطلاعات سریع ",
  "Privacy Policy": "حفظ حریم خصوصی",
  "Enable sending responses": " فعال کردن ارسال پاسخ ها ",
  "Send us an e-mail": " برای ما ایمیل بفرستید ",
  "Go to TajweedMate Telegram Group": " شامل شویدTajweedMate به گروه تلگرام",
  "User ID": " کاربرID ",
  "COPIED": "کاپی شد",
  "(Long tap to copy)": "( برای کاپی طولانی ضربه بزنید)",
  "Team": "تیم",
  "Share TajweedMate": " را همگانی سازیدTajweedMate ",
  "This app is awesome, you should give it a try: ": " این برنامه عالی است ، باید آن را امتحان کنید: ",
  "about_TajweedMate": "در مورد TajweedMate برای همراهی شما در فرایند یادگیری خواندن قرآن کریم توسعه یافته است. این برنامه توسط تیمی از متخصصان بین رشته ای با اشتیاق ، صبر و سخت کوشی با استفاده از آخرین فن آوری ها و بهترین روش ها توسعه یافته است. . TajweedMate پیشرفته ترین فناوری های هوش مصنوعی است. برای اطلاعات بیشتر:",
  "Letters" : "حروف",
  "Fathah (ـــَـ)" : "زبر (ـــَـ)",
  "Kasrah (ـــِـ)" : "زیر (ـــِـ)",
  "Dammah (ـــُـ)" : "پیش (ـــُـ)",
  "Jazm or Sukoon (ـــْـ)" : "جزم ویا ساکن (ـــْـ)",
  "Madd Letter Alif (ا)" : "الف حرف مد (ا)",
  "Madd Letter Yaa (ى)" : "ی حرف مد (ى)",
  "Madd Letter Waaw (و)" : "و حرف مد (و)",
  "Tanween (ــًـٍـُ)" : "تنوین (ــًـٍـُ)",
  "Shadda (ـــّـ)" : "شده (ـــّـ)",
  "Moon and Sun Letters" : "حروف شمس و قمر ",
  "Lafzatullah (الله)" : "لفظ الله (الله)",
  "Introduction to Elongation Rules (Madd)" : "آشنایی با کشش حروف",
  "Al-Madd al-Tabee’ee (Natural Mad) المــد الطبيعى" : "مد طبیعی",
  "Madd Al-Muttasil مد المتصل" : "مد متصل",
  "Madd Al-Munfasil مد المنفصل" : "مد منفصل ",
  "Madd Al-Laazim مد اللازم Part 1" : "بخش 1 مد لازم ",
  "Madd Al-Laazim مد اللازم Part 2" : "بخش 2 مد لازم ",
  "Madd Al-Laazim مد اللازم Part 3" : "بخش 3 مد لازم ",
  "Madd Al-Aarid مد العارض Part 1" : "بخش 1 مد عریض ",
  "Madd Al-Aarid مد العارض Part 2" : "بخش 2 مد عریض ",
  "Madd Al-Aarid مد العارض Part 3" : "بخش 3 مد عریض ",
  "Madd Al-Leen مد اللين" : "مد لین",
  "Introduction to “Tanween” and “Noon with Sukoon Rules”. ( ْن and ً ٍ ٌ )" : "معرفی ن ساکن ",
  "Ith’har إظهار (Clarity)" : "اضهار",
  "Al-Ikhfaa الإِخْفَاء (Hiding)" : "اخفی",
  "Al-Iqlaab الإِقْلاَب (Changing)" : "اقلاب",
  "Al-Idghaam الإِدْغَام (Merging) Part 1" : "بخش 1 ادغام",
  "Al-Idghaam الإِدْغَام (Merging) Part 2" : "بخش 2 ادغام",
  "Idghaam Mithlain ادغام مثلين" : "ادغام مثلین",
  "Idghaam Mithlain With Ghunnah ادغام مثلين مع الغنة" : "ادغام مثلین با غنه",
  "Al-Fatihah (1)": "فاتحه (1)",
  "Ad-Dhuha (93)": "ضحی(93)",
  "Al-Inshirah (94)": "انشراح (94)",
  "At-Teen (95)": "طین (95)",
  "Al-Alaq (96)": "علق (96)",
  "Al-Qadr (97)": "قدر (97)",
  "Al-Bayyinah (98)": "بینه (98)",
  "Az-Zilzal (99)": "زلزال (99)",
  "Al-Aadiyaat (100)": "عادیات (100)",
  "Al-Qaariah (101)": "قارعه (101)",
  "At-Takaathur (102)": "تکاثر (102)",
  "Al-Asr (103)": "عصر (103)",
  "Al-Humazah (104)": "همزه (104)",
  "Al-Feel (105)": "فیل (105)",
  "Quraysh (106)": "قریش (106)",
  "Al-Maaoon (107)": "ماعون (107)",
  "Al-Kawthar (108)": "کوثر (108)",
  "Al-Kaafiroon (109)": "کافرون (109)",
  "An-Nasr (110)": "نصر (110)",
  "Al-Masad (111)": "تبت (111)",
  "Al-Ikhlaas (112)": "اخلاص (112)",
  "Al-Falaq (113)": "فلق (113)",
  "An-Naas (114)": "ناس (114)",
  "Yaseen (36) - part:1": "یاسین (36) بخش:1",
  "Yaseen (36) - part:2": " یاسین (36) - بخش:2",
  "Yaseen (36) - part:3": " یاسین (36) - بخش:3",
  "Yaseen (36) - part:4": " یاسین (36) - بخش:4",
  "Yaseen (36) - part:5": " یاسین (36) بخش:5",
  "Yaseen (36) - part:6": " یاسین (36) - بخش:6",
  "Al-Fath (48) - part:1": "فتح (48) - بخش:1",
  "Al-Fath (48) - part:2": " فتح (48) - بخش:2",
  "Al-Fath (48) - part:3": " فتح (48) - بخش:3",
  "Al-Fath (48) - part:4": " فتح (48) - بخش:4",
  "Al-Fath (48) - part:5": " فتح (48) - بخش:5",
  "Al-Fath (48) - part:6": " فتح (48) - بخش:6",
  "Al-Mulk (67) - part:1": "ملک (67) - بخش:1",
  "Al-Mulk (67) - part:2": " ملک (67) - بخش:2",
  "Al-Mulk (67) - part:3": " ملک (67) - بخش:3",
  "Al-Qalam (68) - part:1": "قلم (68) - بخش:1",
  "Al-Qalam (68) - part:2": " قلم (68) - بخش:2",
  "Al-Qalam (68) - part:3": " قلم (68) - بخش:3",
  "An-Naba (78) - part:1": " نباء (78) - بخش:1",
  "An-Naba (78) - part:2": "نباء (78) - بخش:2",
  "Press record button to record your response.": " با فشردن دکمه ضبط پاسخ خود را بدهید.",
  "/NOTE/": "The following two lines should be considered together. They should mean as: `You will have .. seconds for recording.` So arrange two entries according to your language",
  "You will have ": "برای ثبت ",
  " seconds for recording.": " .ثانیه ها وقت دارید",
  "Warning": "هشدار",
  "Please record your voice in a quiet environment for a better evaluation!": "لطفاً برای ارزیابی بهتر ، صدای خود را در محیط آرام ضبط کنید",
  "Playing your recorded response.": "پاسخ شما در حال پخش است",
  "Listen to Teacher?": "به معلم گوش دهید",
  "You must allow microphone for analysis of your response": "برای تجزیه و تحلیل پاسخ خود باید به میکروفون دسترسی داشته باشید",
  "Analyzing your response. ": "پاسخ شما در حال بررسی است.",
  "Please wait a moment meanwhile. ": "لطفاً در این فاصله صبر کنید.",
  "You may repeat your response using REC button, in case you are not satisfied.": "در صورت عدم رضایت می توانید پاسخ خود را دوباره ثبت کنید.",
  "It seems you haven't done a record to play.": "به نظر می رسد شما ضبط نکرده اید.",
  "Use REC button to make a response.": "برای ثبت پاسخ خود از دکمه ضبط استفاده کنید.",
  "Response time finishes in ": "زمان پاسخ شما ",
  " seconds. Press stop button to finish earlier.": " را فشار دهید STOPدر .... ثانیه به پایان میرسد  قبل از ختم شدن دکمه.",
  "Estimated correctness: ": "صحیح تخمین شده",
  "Please try again, especially following letters : ": "لطفاً دوباره امتحان کنید ، به این حروف توجه کنید",
  "without:" : "بدون:",
  "Congratulations!": "تبریک",
  "It seems you haven't done a record to check.": "به نظر می رسد شما ثبت نکرده اید",
  "Your response has been successfully sent.": "پاسخ تان موفقانه ارسال شد",
  "Your response has been sent.": "پاسخ خود را ارسال نمایید",
  "Unable to send your response: ": "پاسخ شما ارسال نمی گردد",
  "It seems you haven't done a record to send.": "به نظر می رسد شما ثبت نکرده اید .",
  "Memorize by reading the text or listening by listen button. ": "شما می توانید متن را با خواندن یا گوش دادن حفظ کنید.",
  "Press record button to record your response when you are ready.": "دکمه ضبط را فشار دهید تا پاسخ شما هنگام آماده شدن ثبت شود.",
  "Memorization passage is loading...": "در حال ذخیره متن حفظ ...",
  "Passage is hidden, please try to recite.": "جهت تلاوت متن پنهان گردید.",
  "Your response has been recorded. ": "پاسخ شما ثبت شد",
  "Press play button to listen, or send button to donate audio.": "برای گوش دادن به پاسخ خود دکمه پخش را فشار دهید ، برای اهدا دکمه ارسال را فشار دهید.",
  "Quiz Scores Report": "نتایچ  امتحان",
  "no_quiz": "هنوز هیچ امتحانی ندادید",
  "questions_finished": "شما تمام سوالات را ارزیابی نموده اید. برای بازبینی هر پاسخی می توانید مسابقه را ادامه دهید.",
  "goto_quiz_of_lesson": "رفتن به مسابقه مربوط",
  "language": "زبان:   ",
  "delete_scores": "حذف تمام نمرات امتحان",
  "please_confirm": "⚠ لطفا تایید کنید",
  "confirm_delete_scores": "آیا مطمئن هستید که نمرات را حذف کنید؟ برگشت ناپذیر است!",
  "delete": "حذف",
  "forget_it": "رها کردن",
  "new_version_title": "سلام, کاربر عزیز",
  "new_version_text": "اگر شما تاجوید مات را دوست داشتید، شاید شما می خواهید با ترجمه به یک زبان جدید به گسترش آن کمک کنید. اگر چنین است، شما می توانید به ما یک ایمیل قطره، معرفی خود و اظهار داشت که زبان شما می توانید به ترجمه.",
  "nev_version_close_button": "ممنون، گرفتم."
}

