{
  "Taleem": "Taleem",
  "Tajweed": "Tajweed",
  "Quiz": "Quiz",
  "Memorize": "Mémoriser",
  "Tajweed and Its Significance": "Tajweed et sa signification",
  "click_examples_below": "Cliquez sur les cases d'exemple ci-dessous pour écouter les audios et vous entraîner vous-même.",
  "Memorize Passages": "Mémoriser des passages",
  "Quiz Topics": "Sujets du quiz",
  "Tajweed Lessons": "Leçons de tajweed",
  "Taleem Lessons": "Leçons de Taleem",
  "Quick Settings & Info": "Réglages rapides et Informations",
  "Privacy Policy": "Politique de confidentialité",
  "Enable sending responses": "Activer l'envoi de réponses",
  "Send us an e-mail": "Envoyez-nous un e-mail",
  "Go to TajweedMate Telegram Group": "Rejoignez le groupe Telegram TajweedMate",
  "User ID": "Identifiant de l'utilisateur",
  "COPIED": "COPIÉ",
  "(Long tap to copy)": "(Appuyez longuement pour copier)",
  "Team": "Équipe",
  "Share TajweedMate": "Partager TajweedMate",
  "This app is awesome, you should give it a try: ": "Cette application est géniale, vous devriez l'essayer :",
  "about_TajweedMate": "TajweedMate est une application conçue pour être votre compagnon tout au long de votre apprentissage du Saint Coran. Développée avec amour, patience et travail acharné, en mettant en œuvre les dernières technologies et les meilleures pratiques, par une équipe interdisciplinaire de professionnels. TajweedMate utilise des technologies d'intelligence artificielle de pointe. Pour en savoir plus, rendez-vous sur :",
  "Letters": "Lettres",
  "Fathah (ـــَـ)": "Fathah (ـــَـ)",
  "Kasrah (ـــِـ)": "Kasrah (ـــِـ)",
  "Dammah (ـــُـ)": "Dammah (ـــُـ)",
  "Jazm or Sukoon (ـــْـ)": "Jazm ou Sukoon (ـــْـ)",
  "Madd Letter Alif (ا)": "Madd de la Lettre Alif (ا)",
  "Madd Letter Yaa (ى)": "Madd de la Lettre Yaa (ى)",
  "Madd Letter Waaw (و)": "Madd de la Lettre Waaw (و)",
  "Tanween (ــًـٍـُ)": "Tanween (ــًـٍـُ)",
  "Shadda (ـــّـ)": "Shadda (ـــّـ)",
  "Moon and Sun Letters": "Lettres Lunaires et Solaires",
  "Lafzatullah (الله)": "Lafzatullah (الله)",
  "Introduction to Elongation Rules (Madd)": "Introduction aux règles d'élongation (Madd)",
  "Al-Madd al-Tabee’ee (Natural Mad) المــد الطبيعى": "Al-Madd al-Tabee'ee (Mad naturel) المــد الطبيعى",
  "Madd Al-Muttasil مد المتصل": "Madd Al-Moutassil مد المتصل",
  "Madd Al-Munfasil مد المنفصل": "Madd El-Mounfasil مد المنفصل",
  "Madd Al-Laazim مد اللازم Part 1": "Madd Al-Lâzim مد اللازم Partie 1",
  "Madd Al-Laazim مد اللازم Part 2": "Madd Al-Lâzim مد اللازم Partie 2",
  "Madd Al-Laazim مد اللازم Part 3": "Madd Al-Lâzim مد اللازم Partie 3",
  "Madd Al-Aarid مد العارض Part 1": "Madd Al-Aridh مد العارض Partie 1",
  "Madd Al-Aarid مد العارض Part 2": "Madd Al-Aridh مد العارض Partie 2",
  "Madd Al-Aarid مد العارض Part 3": "Madd Al-Aridh مد العارض Partie 3",
  "Madd Al-Leen مد اللين": "Madd Al-Leen مد اللين",
  "Introduction to “Tanween” and “Noon with Sukoon Rules”. ( ْن and ً ٍ ٌ )": "Introduction aux règles du “Tanween” et du “Noon avec Sukoon”. ( ْن et ً ٍ ٌ )",
  "Ith’har إظهار (Clarity)": "Ith'harإظهار(La clarté)",
  "Al-Ikhfaa الإِخْفَاء (Hiding)": "Al-Ikhfaa الإِخْفَاء(La dissimulation)",
  "Al-Iqlaab الإِقْلاَب (Changing)": "Al-Iqlaab (la transformation)",
  "Al-Idghaam الإِدْغَام (Merging) Part 1": "Al-Idgham (l'assimilation) Partie 1",
  "Al-Idghaam الإِدْغَام (Merging) Part 2": "Al-Idgham (l'assimilation) Partie 2",
  "Idghaam Mithlain ادغام مثلين": "Idghaam Mithlain",
  "Idghaam Mithlain With Ghunnah ادغام مثلين مع الغنة": "Idghaam Mithlain avec Ghunnah ادغام مثلين مع الغنة",
  "Al-Fatihah (1)": "Al Fatihah (1)",
  "Ad-Dhuha (93)": "Ad-Dhuha (93)",
  "Al-Inshirah (94)": "Al-Inshirah (94)",
  "At-Teen (95)": "Ado (95)",
  "Al-Alaq (96)": "Al-Alaq (96)",
  "Al-Qadr (97)": "Al Qadr (97)",
  "Al-Bayyinah (98)": "Al-Bayyina (98)",
  "Az-Zilzal (99)": "Az-Zilzal (99)",
  "Al-Aadiyaat (100)": "Al-Adiyaat (100)",
  "Al-Qaariah (101)": "Al Qariah (101)",
  "At-Takaathur (102)": "At-Takaathur (102)",
  "Al-Asr (103)": "Al Asr (103)",
  "Al-Humazah (104)": "Al-Humazah (104)",
  "Al-Feel (105)": "Al Feel (105)",
  "Quraysh (106)": "Quraysh (106)",
  "Al-Maaoon (107)": "Al-Maaoon (107)",
  "Al-Kawthar (108)": "Al Kawtar (108)",
  "Al-Kaafiroon (109)": "Al-Kaafiroun (109)",
  "An-Nasr (110)": "An-Nasr (110)",
  "Al-Masad (111)": "Al-Massad (111)",
  "Al-Ikhlaas (112)": "Al-Ikhlaas (112)",
  "Al-Falaq (113)": "Al Falaq (113)",
  "An-Naas (114)": "An-Naas (114)",
  "Yaseen (36) - part:1": "Yaseen (36) - partie:1",
  "Yaseen (36) - part:2": "Yaseen (36) - partie:2",
  "Yaseen (36) - part:3": "Yaseen (36) - partie:3",
  "Yaseen (36) - part:4": "Yaseen (36) - partie:4",
  "Yaseen (36) - part:5": "Yaseen (36) - partie:5",
  "Yaseen (36) - part:6": "Yaseen (36) - partie:6",
  "Al-Fath (48) - part:1": "Al-Fath (48) - partie:1",
  "Al-Fath (48) - part:2": "Al-Fath (48) - partie:2",
  "Al-Fath (48) - part:3": "Al-Fath (48) - partie:3",
  "Al-Fath (48) - part:4": "Al-Fath (48) - partie:4",
  "Al-Fath (48) - part:5": "Al-Fath (48) - partie:5",
  "Al-Fath (48) - part:6": "Al-Fath (48) - partie:6",
  "Al-Mulk (67) - part:1": "Al-Mulk (67) - partie:1",
  "Al-Mulk (67) - part:2": "Al-Mulk (67) - partie:2",
  "Al-Mulk (67) - part:3": "Al-Mulk (67) - partie:3",
  "Al-Qalam (68) - part:1": "Al-Qalam (68) - partie:1",
  "Al-Qalam (68) - part:2": "Al-Qalam (68) - partie:2",
  "Al-Qalam (68) - part:3": "Al-Qalam (68) - partie:3",
  "An-Naba (78) - part:1": "An-Naba (78) - partie:1",
  "An-Naba (78) - part:2": "An-Naba (78) - partie:2",
  "Press record button to record your response.": "Appuyez sur le bouton d'enregistrement pour enregistrer votre réponse.",
  "/NOTE/": "Les deux lignes suivantes doivent être prises en compte ensemble. Elles doivent signifier : `Vous aurez .. secondes pour l'enregistrement.` Veuillez donc organiser deux entrées en fonction de votre langue.",
  "You will have ": "Vous aurez",
  " seconds for recording.": "secondes pour l'enregistrement.",
  "Warning": "Attention",
  "Please record your voice in a quiet environment for a better evaluation!": "Veuillez enregistrer votre voix dans un environnement calme pour une meilleure évaluation!",
  "Playing your recorded response.": "Lecture de votre réponse enregistrée.",
  "Listen to Teacher?": "Écouter l'enseignant?",
  "You must allow microphone for analysis of your response": "Vous devez autoriser l'accès au microphone pour l'analyse de votre réponse",
  "Analyzing your response. ": "Analyse de votre réponse.",
  "Please wait a moment meanwhile. ": "Veuillez patienter un instant.",
  "You may repeat your response using REC button, in case you are not satisfied.": "Vous pouvez répéter votre réponse en utilisant le bouton REC, si vous n'êtes pas satisfait.",
  "It seems you haven't done a record to play.": "Il semble que vous n'ayez pas effectué d'enregistrement à lire.",
  "Use REC button to make a response.": "Utilisez le bouton REC pour enregistrer une réponse.",
  "Response time finishes in ": "Le temps de réponse se termine dans",
  " seconds. Press stop button to finish earlier.": "secondes. Appuyez sur le bouton d'arrêter pour terminer plus tôt.",
  "Estimated correctness: ": "Exactitude estimée :",
  "Please try again, especially following letters : ": "Veuillez réessayer, surtout en suivant les lettres",
  "without:": "sans:",
  "Congratulations!": "Félicitations!",
  "It seems you haven't done a record to check.": "Il semble que vous n'ayez pas effectué d'enregistrement à vérifier.",
  "Your response has been successfully sent.": "Votre réponse a été envoyée avec succès.",
  "Your response has been sent.": "Votre réponse a été envoyée.",
  "Unable to send your response: ": "Votre réponse ne peut pas être envoyée:",
  "It seems you haven't done a record to send.": "Il semble que vous n'ayez pas effectué d'enregistrement à envoyer.",
  "Memorize by reading the text or listening by listen button. ": "Mémorisez en lisant le texte ou en écoutant en appuyant sur le bouton écouter ",
  "Press record button to record your response when you are ready.": "Appuyez sur le bouton enregistrer pour enregistrer votre réponse quand vous êtes prêt.",
  "Memorization passage is loading...": "Le passage de mémorisation est en cours de chargement...",
  "Passage is hidden, please try to recite.": "Le passage est caché, essayez de le réciter.",
  "Your response has been recorded. ": "Votre réponse a été enregistrée.",
  "Press play button to listen, or send button to donate audio.": "Appuyez sur le bouton Lecture pour écouter ou sur le bouton Envoyer pour faire un don audio.",
  "Quiz Scores Report": "Rapport des scores du quiz",
  "no_quiz": "Il semble que vous n'ayez encore effectué aucun quiz.",
  "questions_finished": "Vous avez visité toutes les questions. Vous pouvez continuer le test pour réviser n'importe quelle réponse.",
  "goto_quiz_of_lesson": "Accédez au quiz associé",
  "language": "Langue:   ",
  "delete_scores": "Supprimer tous les scores du quiz",
  "please_confirm": "⚠ Veuillez confirmer",
  "confirm_delete_scores": "Êtes-vous sûr de vouloir supprimer les scores ? C'est irréversible !",
  "delete": "Supprimer",
  "forget_it": "Oublier",
  "new_version_title": "Salaam, cher utilisateur",
  "new_version_text": "Si vous avez apprécié TajweedMate, vous pourriez être intéressé(e) à contribuer à sa diffusion en le traduisant dans une autre langue. Si c'est le cas, n'hésitez pas à nous envoyer un email pour vous présenter et nous indiquer dans quelle langue vous pouvez effectuer la traduction.",
  "nev_version_close_button": "Merci, compris."
}